[160493, N]: SYSTEM_SERVER: warning: memory usage: 60 Meg
[160493, 0]: -- begin new backtrace (innermost first) [PARTIAL] ----------
[160493, 0]: NULL (0): ip = 0x2b9daaf66ca1 (0x10ca1), load module = /opt/apps/intel17/impi17_0/hpctoolkit/2016.12/lib/hpctoolkit/libhpcrun.so.0.0.0 | lip 
[160493, 0]: NULL (0): ip = 0x2b9dab1bbb22 (0xfb22), load module = /opt/apps/intel17/impi17_0/hpctoolkit/2016.12/lib/hpctoolkit/ext-libs/libmonitor.so.0.0.0 | lip 
[160493, 0]: NULL (0): ip = 0x2b9de06aee91 (0x23e91), load module = /usr/lib64/libpsm2.so.2.1 | lip 
[160493, 0]: NULL (0): ip = 0x2b9de06ae02a (0x2302a), load module = /usr/lib64/libpsm2.so.2.1 | lip 
[160493, 0]: NULL (0): ip = 0x2b9de069d6e4 (0x126e4), load module = /usr/lib64/libpsm2.so.2.1 | lip 
[160493, 0]: NULL (0): ip = 0x2b9de069c132 (0x11132), load module = /usr/lib64/libpsm2.so.2.1 | lip 
[160493, 0]: NULL (0): ip = 0x2b9de048a0cd (0x20cd), load module = /opt/intel/compilers_and_libraries_2017.4.196/linux/mpi/intel64/lib/libtmip_psm2.so.1.0 | lip 
[160493, 0]: NULL (0): ip = 0x2b9dac114b46 (0x54cb46), load module = /opt/intel/compilers_and_libraries_2017.4.196/linux/mpi/intel64/lib/release_mt/libmpi.so.12.0 | lip 
[160493, 0]: NULL (0): ip = 0x2b9dac113998 (0x54b998), load module = /opt/intel/compilers_and_libraries_2017.4.196/linux/mpi/intel64/lib/release_mt/libmpi.so.12.0 | lip 
[160493, 0]: NULL (0): ip = 0x2b9dabf88016 (0x3c0016), load module = /opt/intel/compilers_and_libraries_2017.4.196/linux/mpi/intel64/lib/release_mt/libmpi.so.12.0 | lip 
[160493, 0]: NULL (0): ip = 0x2b9dabf86818 (0x3be818), load module = /opt/intel/compilers_and_libraries_2017.4.196/linux/mpi/intel64/lib/release_mt/libmpi.so.12.0 | lip 
[160493, 0]: NULL (0): ip = 0x2b9dabd03961 (0x13b961), load module = /opt/intel/compilers_and_libraries_2017.4.196/linux/mpi/intel64/lib/release_mt/libmpi.so.12.0 | lip 
[160493, 0]: NULL (0): ip = 0x2b9dabf74ece (0x3acece), load module = /opt/intel/compilers_and_libraries_2017.4.196/linux/mpi/intel64/lib/release_mt/libmpi.so.12.0 | lip 
[160493, 0]: NULL (0): ip = 0x2b9dabf0b11b (0x34311b), load module = /opt/intel/compilers_and_libraries_2017.4.196/linux/mpi/intel64/lib/release_mt/libmpi.so.12.0 | lip 
[160493, 0]: NULL (0): ip = 0x2b9dabef881b (0x33081b), load module = /opt/intel/compilers_and_libraries_2017.4.196/linux/mpi/intel64/lib/release_mt/libmpi.so.12.0 | lip 
[160493, 0]: NULL (0): ip = 0x2b9dab1b38f7 (0x78f7), load module = /opt/apps/intel17/impi17_0/hpctoolkit/2016.12/lib/hpctoolkit/ext-libs/libmonitor.so.0.0.0 | lip 
[160493, 0]: NULL (0): ip = 0x4036fb (0x4036fb), load module = /home1/05216/tg845159/cse6230fa17-proj2-pchoudhary32-vdubey8/06_sample_bitonic_hpc/test_proj2 | lip 
[160493, 0]: -- end backtrace ------------------------------------

MEMORY: segment size: 4.0 meg, num segments: 4, total allocation: 16.0 meg, reclaims: 0
MEMORY: total freeable: 0.0 meg, total non-freeable: 9.2 meg, malloc failures: 0
SAMPLE ANOMALIES: blocks: 0 (async: 0, dlopen: 0), errors: 0 (segv: 0, soft: 0)
SUMMARY: samples: 15703 (recorded: 15703, blocked: 0, errant: 0, trolled: 7, yielded: 0),
         frames: 234784 (trolled: 7)
         intervals: 9186 (suspicious: 2)
