[160496, N]: SYSTEM_SERVER: warning: memory usage: 60 Meg
[160496, 0]: -- begin new backtrace (innermost first) [PARTIAL] ----------
[160496, 0]: NULL (0): ip = 0x2b73438daca1 (0x10ca1), load module = /opt/apps/intel17/impi17_0/hpctoolkit/2016.12/lib/hpctoolkit/libhpcrun.so.0.0.0 | lip 
[160496, 0]: NULL (0): ip = 0x2b7343b2fb22 (0xfb22), load module = /opt/apps/intel17/impi17_0/hpctoolkit/2016.12/lib/hpctoolkit/ext-libs/libmonitor.so.0.0.0 | lip 
[160496, 0]: NULL (0): ip = 0x2b7379022e91 (0x23e91), load module = /usr/lib64/libpsm2.so.2.1 | lip 
[160496, 0]: NULL (0): ip = 0x2b737902202a (0x2302a), load module = /usr/lib64/libpsm2.so.2.1 | lip 
[160496, 0]: NULL (0): ip = 0x2b73790116e4 (0x126e4), load module = /usr/lib64/libpsm2.so.2.1 | lip 
[160496, 0]: NULL (0): ip = 0x2b7379010132 (0x11132), load module = /usr/lib64/libpsm2.so.2.1 | lip 
[160496, 0]: NULL (0): ip = 0x2b7378dfe0cd (0x20cd), load module = /opt/intel/compilers_and_libraries_2017.4.196/linux/mpi/intel64/lib/libtmip_psm2.so.1.0 | lip 
[160496, 0]: NULL (0): ip = 0x2b7344a88b46 (0x54cb46), load module = /opt/intel/compilers_and_libraries_2017.4.196/linux/mpi/intel64/lib/release_mt/libmpi.so.12.0 | lip 
[160496, 0]: NULL (0): ip = 0x2b7344a87998 (0x54b998), load module = /opt/intel/compilers_and_libraries_2017.4.196/linux/mpi/intel64/lib/release_mt/libmpi.so.12.0 | lip 
[160496, 0]: NULL (0): ip = 0x2b73448fc016 (0x3c0016), load module = /opt/intel/compilers_and_libraries_2017.4.196/linux/mpi/intel64/lib/release_mt/libmpi.so.12.0 | lip 
[160496, 0]: NULL (0): ip = 0x2b73448fa818 (0x3be818), load module = /opt/intel/compilers_and_libraries_2017.4.196/linux/mpi/intel64/lib/release_mt/libmpi.so.12.0 | lip 
[160496, 0]: NULL (0): ip = 0x2b7344677961 (0x13b961), load module = /opt/intel/compilers_and_libraries_2017.4.196/linux/mpi/intel64/lib/release_mt/libmpi.so.12.0 | lip 
[160496, 0]: NULL (0): ip = 0x2b73448e8ece (0x3acece), load module = /opt/intel/compilers_and_libraries_2017.4.196/linux/mpi/intel64/lib/release_mt/libmpi.so.12.0 | lip 
[160496, 0]: NULL (0): ip = 0x2b734487f11b (0x34311b), load module = /opt/intel/compilers_and_libraries_2017.4.196/linux/mpi/intel64/lib/release_mt/libmpi.so.12.0 | lip 
[160496, 0]: NULL (0): ip = 0x2b734486c81b (0x33081b), load module = /opt/intel/compilers_and_libraries_2017.4.196/linux/mpi/intel64/lib/release_mt/libmpi.so.12.0 | lip 
[160496, 0]: NULL (0): ip = 0x2b7343b278f7 (0x78f7), load module = /opt/apps/intel17/impi17_0/hpctoolkit/2016.12/lib/hpctoolkit/ext-libs/libmonitor.so.0.0.0 | lip 
[160496, 0]: NULL (0): ip = 0x4036fb (0x4036fb), load module = /home1/05216/tg845159/cse6230fa17-proj2-pchoudhary32-vdubey8/06_sample_bitonic_hpc/test_proj2 | lip 
[160496, 0]: -- end backtrace ------------------------------------

MEMORY: segment size: 4.0 meg, num segments: 4, total allocation: 16.0 meg, reclaims: 0
MEMORY: total freeable: 0.0 meg, total non-freeable: 9.1 meg, malloc failures: 0
SAMPLE ANOMALIES: blocks: 0 (async: 0, dlopen: 0), errors: 0 (segv: 0, soft: 0)
SUMMARY: samples: 15695 (recorded: 15695, blocked: 0, errant: 0, trolled: 7, yielded: 0),
         frames: 423578 (trolled: 7)
         intervals: 8389 (suspicious: 2)
