[204232, N]: SYSTEM_SERVER: warning: memory usage: 60 Meg
[204232, 0]: -- begin new backtrace (innermost first) [PARTIAL] ----------
[204232, 0]: NULL (0): ip = 0x2af17ea8fca1 (0x10ca1), load module = /opt/apps/intel17/impi17_0/hpctoolkit/2016.12/lib/hpctoolkit/libhpcrun.so.0.0.0 | lip 
[204232, 0]: NULL (0): ip = 0x2af17ece4b22 (0xfb22), load module = /opt/apps/intel17/impi17_0/hpctoolkit/2016.12/lib/hpctoolkit/ext-libs/libmonitor.so.0.0.0 | lip 
[204232, 0]: NULL (0): ip = 0x2af1b41d8e91 (0x23e91), load module = /usr/lib64/libpsm2.so.2.1 | lip 
[204232, 0]: NULL (0): ip = 0x2af1b41d802a (0x2302a), load module = /usr/lib64/libpsm2.so.2.1 | lip 
[204232, 0]: NULL (0): ip = 0x2af1b41c76e4 (0x126e4), load module = /usr/lib64/libpsm2.so.2.1 | lip 
[204232, 0]: NULL (0): ip = 0x2af1b41c6132 (0x11132), load module = /usr/lib64/libpsm2.so.2.1 | lip 
[204232, 0]: NULL (0): ip = 0x2af1b3fb40cd (0x20cd), load module = /opt/intel/compilers_and_libraries_2017.4.196/linux/mpi/intel64/lib/libtmip_psm2.so.1.0 | lip 
[204232, 0]: NULL (0): ip = 0x2af17fc3eb46 (0x54cb46), load module = /opt/intel/compilers_and_libraries_2017.4.196/linux/mpi/intel64/lib/release_mt/libmpi.so.12.0 | lip 
[204232, 0]: NULL (0): ip = 0x2af17fc3d998 (0x54b998), load module = /opt/intel/compilers_and_libraries_2017.4.196/linux/mpi/intel64/lib/release_mt/libmpi.so.12.0 | lip 
[204232, 0]: NULL (0): ip = 0x2af17fab2016 (0x3c0016), load module = /opt/intel/compilers_and_libraries_2017.4.196/linux/mpi/intel64/lib/release_mt/libmpi.so.12.0 | lip 
[204232, 0]: NULL (0): ip = 0x2af17fab0818 (0x3be818), load module = /opt/intel/compilers_and_libraries_2017.4.196/linux/mpi/intel64/lib/release_mt/libmpi.so.12.0 | lip 
[204232, 0]: NULL (0): ip = 0x2af17f82d961 (0x13b961), load module = /opt/intel/compilers_and_libraries_2017.4.196/linux/mpi/intel64/lib/release_mt/libmpi.so.12.0 | lip 
[204232, 0]: NULL (0): ip = 0x2af17fa9eece (0x3acece), load module = /opt/intel/compilers_and_libraries_2017.4.196/linux/mpi/intel64/lib/release_mt/libmpi.so.12.0 | lip 
[204232, 0]: NULL (0): ip = 0x2af17fa3511b (0x34311b), load module = /opt/intel/compilers_and_libraries_2017.4.196/linux/mpi/intel64/lib/release_mt/libmpi.so.12.0 | lip 
[204232, 0]: NULL (0): ip = 0x2af17fa2281b (0x33081b), load module = /opt/intel/compilers_and_libraries_2017.4.196/linux/mpi/intel64/lib/release_mt/libmpi.so.12.0 | lip 
[204232, 0]: NULL (0): ip = 0x2af17ecdc8f7 (0x78f7), load module = /opt/apps/intel17/impi17_0/hpctoolkit/2016.12/lib/hpctoolkit/ext-libs/libmonitor.so.0.0.0 | lip 
[204232, 0]: NULL (0): ip = 0x4036fb (0x4036fb), load module = /home1/05216/tg845159/cse6230fa17-proj2-pchoudhary32-vdubey8/04_mergesort_hpc/test_proj2 | lip 
[204232, 0]: NULL (0): ip = 0x2af17e86ba00 (0xfa00), load module = /usr/lib64/ld-2.17.so | lip 
[204232, 0]: -- end backtrace ------------------------------------

MEMORY: segment size: 4.0 meg, num segments: 4, total allocation: 16.0 meg, reclaims: 0
MEMORY: total freeable: 0.0 meg, total non-freeable: 8.9 meg, malloc failures: 0
SAMPLE ANOMALIES: blocks: 0 (async: 0, dlopen: 0), errors: 0 (segv: 0, soft: 0)
SUMMARY: samples: 458 (recorded: 458, blocked: 0, errant: 0, trolled: 6, yielded: 0),
         frames: 5315 (trolled: 6)
         intervals: 8505 (suspicious: 2)
