[156212, N]: SYSTEM_SERVER: warning: memory usage: 60 Meg
[156212, 0]: -- begin new backtrace (innermost first) [PARTIAL] ----------
[156212, 0]: NULL (0): ip = 0x2b66ac4e2ca1 (0x10ca1), load module = /opt/apps/intel17/impi17_0/hpctoolkit/2016.12/lib/hpctoolkit/libhpcrun.so.0.0.0 | lip 
[156212, 0]: NULL (0): ip = 0x2b66ac737b22 (0xfb22), load module = /opt/apps/intel17/impi17_0/hpctoolkit/2016.12/lib/hpctoolkit/ext-libs/libmonitor.so.0.0.0 | lip 
[156212, 0]: NULL (0): ip = 0x2b66e1c2ae91 (0x23e91), load module = /usr/lib64/libpsm2.so.2.1 | lip 
[156212, 0]: NULL (0): ip = 0x2b66e1c2a02a (0x2302a), load module = /usr/lib64/libpsm2.so.2.1 | lip 
[156212, 0]: NULL (0): ip = 0x2b66e1c196e4 (0x126e4), load module = /usr/lib64/libpsm2.so.2.1 | lip 
[156212, 0]: NULL (0): ip = 0x2b66e1c18132 (0x11132), load module = /usr/lib64/libpsm2.so.2.1 | lip 
[156212, 0]: NULL (0): ip = 0x2b66e1a060cd (0x20cd), load module = /opt/intel/compilers_and_libraries_2017.4.196/linux/mpi/intel64/lib/libtmip_psm2.so.1.0 | lip 
[156212, 0]: NULL (0): ip = 0x2b66ad690b46 (0x54cb46), load module = /opt/intel/compilers_and_libraries_2017.4.196/linux/mpi/intel64/lib/release_mt/libmpi.so.12.0 | lip 
[156212, 0]: NULL (0): ip = 0x2b66ad68f998 (0x54b998), load module = /opt/intel/compilers_and_libraries_2017.4.196/linux/mpi/intel64/lib/release_mt/libmpi.so.12.0 | lip 
[156212, 0]: NULL (0): ip = 0x2b66ad504016 (0x3c0016), load module = /opt/intel/compilers_and_libraries_2017.4.196/linux/mpi/intel64/lib/release_mt/libmpi.so.12.0 | lip 
[156212, 0]: NULL (0): ip = 0x2b66ad502818 (0x3be818), load module = /opt/intel/compilers_and_libraries_2017.4.196/linux/mpi/intel64/lib/release_mt/libmpi.so.12.0 | lip 
[156212, 0]: NULL (0): ip = 0x2b66ad27f961 (0x13b961), load module = /opt/intel/compilers_and_libraries_2017.4.196/linux/mpi/intel64/lib/release_mt/libmpi.so.12.0 | lip 
[156212, 0]: NULL (0): ip = 0x2b66ad4f0ece (0x3acece), load module = /opt/intel/compilers_and_libraries_2017.4.196/linux/mpi/intel64/lib/release_mt/libmpi.so.12.0 | lip 
[156212, 0]: NULL (0): ip = 0x2b66ad48711b (0x34311b), load module = /opt/intel/compilers_and_libraries_2017.4.196/linux/mpi/intel64/lib/release_mt/libmpi.so.12.0 | lip 
[156212, 0]: NULL (0): ip = 0x2b66ad47481b (0x33081b), load module = /opt/intel/compilers_and_libraries_2017.4.196/linux/mpi/intel64/lib/release_mt/libmpi.so.12.0 | lip 
[156212, 0]: NULL (0): ip = 0x2b66ac72f8f7 (0x78f7), load module = /opt/apps/intel17/impi17_0/hpctoolkit/2016.12/lib/hpctoolkit/ext-libs/libmonitor.so.0.0.0 | lip 
[156212, 0]: NULL (0): ip = 0x4036fb (0x4036fb), load module = /home1/05216/tg845159/cse6230fa17-proj2-pchoudhary32-vdubey8/05_sample_all_hpc/test_proj2 | lip 
[156212, 0]: -- end backtrace ------------------------------------

MEMORY: segment size: 4.0 meg, num segments: 4, total allocation: 16.0 meg, reclaims: 0
MEMORY: total freeable: 0.0 meg, total non-freeable: 9.0 meg, malloc failures: 0
SAMPLE ANOMALIES: blocks: 0 (async: 0, dlopen: 0), errors: 0 (segv: 0, soft: 0)
SUMMARY: samples: 15944 (recorded: 15944, blocked: 0, errant: 0, trolled: 9, yielded: 0),
         frames: 235516 (trolled: 9)
         intervals: 7955 (suspicious: 2)
