[215700, N]: SYSTEM_SERVER: warning: memory usage: 60 Meg
[215700, 0]: -- begin new backtrace (innermost first) [PARTIAL] ----------
[215700, 0]: NULL (0): ip = 0x2b2e77b82ca1 (0x10ca1), load module = /opt/apps/intel17/impi17_0/hpctoolkit/2016.12/lib/hpctoolkit/libhpcrun.so.0.0.0 | lip 
[215700, 0]: NULL (0): ip = 0x2b2e77dd7b22 (0xfb22), load module = /opt/apps/intel17/impi17_0/hpctoolkit/2016.12/lib/hpctoolkit/ext-libs/libmonitor.so.0.0.0 | lip 
[215700, 0]: NULL (0): ip = 0x2b2ead2cae91 (0x23e91), load module = /usr/lib64/libpsm2.so.2.1 | lip 
[215700, 0]: NULL (0): ip = 0x2b2ead2ca02a (0x2302a), load module = /usr/lib64/libpsm2.so.2.1 | lip 
[215700, 0]: NULL (0): ip = 0x2b2ead2b96e4 (0x126e4), load module = /usr/lib64/libpsm2.so.2.1 | lip 
[215700, 0]: NULL (0): ip = 0x2b2ead2b8132 (0x11132), load module = /usr/lib64/libpsm2.so.2.1 | lip 
[215700, 0]: NULL (0): ip = 0x2b2ead0a60cd (0x20cd), load module = /opt/intel/compilers_and_libraries_2017.4.196/linux/mpi/intel64/lib/libtmip_psm2.so.1.0 | lip 
[215700, 0]: NULL (0): ip = 0x2b2e78d30b46 (0x54cb46), load module = /opt/intel/compilers_and_libraries_2017.4.196/linux/mpi/intel64/lib/release_mt/libmpi.so.12.0 | lip 
[215700, 0]: NULL (0): ip = 0x2b2e78d2f998 (0x54b998), load module = /opt/intel/compilers_and_libraries_2017.4.196/linux/mpi/intel64/lib/release_mt/libmpi.so.12.0 | lip 
[215700, 0]: NULL (0): ip = 0x2b2e78ba4016 (0x3c0016), load module = /opt/intel/compilers_and_libraries_2017.4.196/linux/mpi/intel64/lib/release_mt/libmpi.so.12.0 | lip 
[215700, 0]: NULL (0): ip = 0x2b2e78ba2818 (0x3be818), load module = /opt/intel/compilers_and_libraries_2017.4.196/linux/mpi/intel64/lib/release_mt/libmpi.so.12.0 | lip 
[215700, 0]: NULL (0): ip = 0x2b2e7891f961 (0x13b961), load module = /opt/intel/compilers_and_libraries_2017.4.196/linux/mpi/intel64/lib/release_mt/libmpi.so.12.0 | lip 
[215700, 0]: NULL (0): ip = 0x2b2e78b90ece (0x3acece), load module = /opt/intel/compilers_and_libraries_2017.4.196/linux/mpi/intel64/lib/release_mt/libmpi.so.12.0 | lip 
[215700, 0]: NULL (0): ip = 0x2b2e78b2711b (0x34311b), load module = /opt/intel/compilers_and_libraries_2017.4.196/linux/mpi/intel64/lib/release_mt/libmpi.so.12.0 | lip 
[215700, 0]: NULL (0): ip = 0x2b2e78b1481b (0x33081b), load module = /opt/intel/compilers_and_libraries_2017.4.196/linux/mpi/intel64/lib/release_mt/libmpi.so.12.0 | lip 
[215700, 0]: NULL (0): ip = 0x2b2e77dcf8f7 (0x78f7), load module = /opt/apps/intel17/impi17_0/hpctoolkit/2016.12/lib/hpctoolkit/ext-libs/libmonitor.so.0.0.0 | lip 
[215700, 0]: NULL (0): ip = 0x4036fb (0x4036fb), load module = /home1/05216/tg845159/cse6230fa17-proj2-pchoudhary32-vdubey8/05_sample_all_hpc/test_proj2 | lip 
[215700, 0]: -- end backtrace ------------------------------------

[215700, 0]: -- begin new backtrace (innermost first) [PARTIAL] ----------
[215700, 0]: NULL (0): ip = 0x2b2e7795d8a7 (0xe8a7), load module = /usr/lib64/ld-2.17.so | lip 
[215700, 0]: NULL (0): ip = 0x2b2e77964430 (0x15430), load module = /usr/lib64/ld-2.17.so | lip 
[215700, 0]: -- end backtrace ------------------------------------

MEMORY: segment size: 4.0 meg, num segments: 4, total allocation: 16.0 meg, reclaims: 0
MEMORY: total freeable: 0.0 meg, total non-freeable: 9.1 meg, malloc failures: 0
SAMPLE ANOMALIES: blocks: 0 (async: 0, dlopen: 0), errors: 1 (segv: 0, soft: 1)
SUMMARY: samples: 15888 (recorded: 15888, blocked: 0, errant: 1, trolled: 5, yielded: 0),
         frames: 262920 (trolled: 5)
         intervals: 9080 (suspicious: 2)
